…
Create a function of `backtracks_df` to create the data.
```
backtracks_df <- collatz_df %>%
  group_by(start) %>%
  filter(any(sapply(seq, has_backtrack))) %>%
  ungroup()

head(backtracks_df)
print(backtracks_df)
```

Output:
```
backtracks_df
#> #A tibble: 8,229 × 5
#>   start seq        length parity max_val
#>   <int> <list>      <dbl> <chr>    <dbl>
#> 1     6 <dbl [9]>       9 Even        16
#> 2     7 <dbl [17]>     17 Odd         52
#> 3     9 <dbl [20]>     20 Odd         52
#> 4    10 <dbl [7]>       7 Even        16
#> 5    11 <dbl [15]>     15 Odd         52
#> 6    12 <dbl [10]>     10 Even        16
#> 7    13 <dbl [10]>     10 Odd         40
#> 8    14 <dbl [18]>     18 Even        52
#> 9    15 <dbl [18]>     18 Odd        160
#> 10    17 <dbl [13]>     13 Odd         52
#> # ℹ 8,219 more rows
```
…
